Station,Type,Longitude [degrees_east],Latitude [degrees_north]
UC057141,C,330.7803,-12.8913
UC057181,C,327.11829,-0.1828
UC057174,C,331.07901,-2.6632
UC057171,C,331.08801,-2.6385
UC057162,C,331.5405,-5.6768
UC057151,C,332.00119,-9.1475
UC057131,C,329.4068,-17.0162
UC057124,C,327.24899,-22.4693
UC057121,C,327.26779,-22.4715
UC057112,C,325.71881,-26.0902
UC057101,C,324.21579,-29.062
UC057091,C,322.53671,-32.086
UC057081,C,320.5575,-35.0083
UC057072,C,318.86951,-37.8382
UC057064,C,317.65399,-39.9568
UC057061,C,317.5123,-39.9685
UC057051,C,315.98019,-42.3785
UC057041,C,314.45428,-44.702
UC057031,C,312.77979,-46.933
UC057024,C,311.3385,-48.8642
UC057021,C,311.121,-48.9675
UC057011,C,307.31232,-49.5468
RC057182,C,327.12549,-0.1915
RC057172,C,331.08279,-2.6505
RC057163,C,331.53601,-5.689
RC057161,C,331.54279,-5.6667
RC057152,C,331.99881,-9.1608
RC057142,C,330.76651,-12.8957
RC057132,C,329.39481,-17.0173
RC057122,C,327.25131,-22.4732
RC057113,C,325.69971,-26.0905
RC057111,C,325.74152,-26.0867
RC057102,C,324.1922,-29.0538
RC057092,C,322.5437,-32.092
RC057082,C,320.569,-35.0093
RC057073,C,318.86182,-37.8522
RC057071,C,318.87518,-37.8305
RC057062,C,317.57681,-39.9648
RC057052,C,315.9682,-42.364
RC057042,C,314.47351,-44.7117
RC057032,C,312.82098,-46.907
RC057025,C,311.39301,-48.8087
RC057022,C,311.2067,-48.9358
RC057012,C,307.31149,-49.5475
UP319191,C,298.89801,32.5517
UP319181,C,301.95001,33.4334
UP319171,C,304.58261,34.3338
UP319161,C,306.6861,36.2035
UP319156,C,309.1293,37.5236
UP319152,C,309.2724,37.5423
UP319141,C,311.92441,39.5067
UP319131,C,317.47659,44.8413
UP319121,C,320.34119,46.3119
UP319113,C,320.60059,47.7994
UP319111,C,320.60031,47.8
UP319101,C,317.55289,49.7215
UP319091,C,314.2677,51.8205
UP319084,C,314.16501,54.0631
UP319081,C,314.16449,54.0637
UP319071,C,318.078,57.1707
UP319061,C,320.2934,58.6026
UP319051,C,322.09241,60.4283
UP319031,C,324.00229,62.3451
UP319023,C,325.7485,63.9998
UP319021,C,325.75119,64.0002
UP319011,C,349.01709,60.4053
RP319192,C,298.89981,32.5511
RP319182,C,301.94971,33.4334
RP319172,C,304.56839,34.3277
RP319162,C,306.7319,36.2067
RP319153,C,309.24411,37.5214
RP319151,C,309.31451,37.5673
RP319132,C,317.4649,44.8426
RP319122,C,320.34201,46.312
RP319114,C,320.6001,47.8001
RP319112,C,320.60101,47.8007
RP319102,C,317.55328,49.7225
RP319092,C,314.26929,51.8213
RP319082,C,314.16602,54.0635
RP319062,C,320.29239,58.6018
RP319052,C,322.0878,60.4262
RP319032,C,324.0014,62.3452
RP319024,C,325.7507,64.0001
RP319022,C,325.75018,64.0003
UP321411,C,321.0329,0.7161
UP321401,C,320.31311,1.1472
UP321391,C,318.30029,2.5448
UP321382,C,316.2485,3.9733
UP321371,C,313.5834,5.9773
UP321366,C,311.11652,7.7664
UP321361,C,311.117,7.766
UP321351,C,309.5314,9.5456
UP321341,C,307.9545,11.3722
UP321331,C,306.57928,13.1616
UP321321,C,305.19751,14.8804
UP321311,C,303.7312,16.8308
UP321306,C,302.39389,18.5646
UP321302,C,302.38779,18.5725
UP321291,C,300.46771,20.4556
UP321282,C,298.1568,21.7766
UP321271,C,296.4166,22.3407
UP321261,C,294.4473,23.2746
UP321251,C,292.92719,24.7145
UP321241,C,292.1954,26.2391
UP321231,C,292.49841,28.0909
UP321221,C,293.47009,29.6156
UP321212,C,295.83319,31.6668
UP321202,C,295.5076,32.2284
RP321412,C,321.03369,0.7148
UP321362,C,320.314,1.1472
RP321392,C,318.29971,2.5451
RP321381,C,316.24438,3.9775
RP321372,C,313.58249,5.9788
RP321367,C,311.11621,7.7668
RP321363,C,311.11639,7.7664
RP321352,C,309.5314,9.5462
RP321342,C,307.9549,11.3723
RP321332,C,306.57849,13.1623
RP321322,C,305.19711,14.8799
RP321312,C,303.73151,16.8312
RP321305,C,302.38779,18.5726
RP321303,C,302.3877,18.5725
RP321292,C,300.46921,20.4544
RP321281,C,298.1568,21.7762
RP321272,C,296.41669,22.3411
RP321262,C,294.44708,23.2748
RP321252,C,292.9274,24.7143
RP321242,C,292.19562,26.2387
RP321234,C,292.4985,28.0905
RP321222,C,293.47031,29.6157
RP321215,C,295.83362,31.6671
RP321211,C,295.83301,31.6667
GT10/2221,C,335.50378,17.404
GT10/2216,C,335.50021,17.3998
GT10/2207,C,337.21671,17.35
GT10/2202,C,337.21829,17.3517
GT10/2192,C,339.1734,17.3532
GT10/2186,C,339.185,17.3517
GT10/2170,C,341.75,17.3583
GT10/2164,C,341.74649,17.3505
GT10/2142,C,338,20.59
GT10/2131,C,338.004,24.0032
GT10/2120,C,338,24
GT10/2106,C,337.9967,27.515
GT10/2092,C,338.99631,31.005
GT10/2084,C,338.00171,31.0017
GT10/2060,C,344.0033,35.2017
GT10/2054,C,343.9967,35.2017
GT10/2044,C,347.1683,36.7617
GT10/2026,C,350.34,38.3267
GT10/2019,C,350.34,38.3233
GT10/2222,C,335.50378,17.404
GT10/2220,C,335.50378,17.404
GT10/2218,C,335.50021,17.3998
GT10/2208,C,337.21631,17.3502
GT10/2206,C,337.21649,17.3502
GT10/2204,C,337.21381,17.3539
GT10/2194,C,339.17389,17.3602
GT10/2191,C,339.17639,17.3521
GT10/2188,C,339.18329,17.3516
GT10/2175,C,341.74969,17.3505
GT10/2173,C,341.7457,17.3605
GT10/2168,C,341.7504,17.3497
GT10/2167,C,341.742,17.3524
GT10/2165,C,341.74579,17.3503
GT10/2162,C,341.7453,17.3506
GT10/2143,C,337.99759,21.0006
GT10/2132,C,338.00339,24.0032
GT10/2130,C,338.00391,24.0032
GT10/2121,C,337.99991,24.0001
GT10/2107,C,337.99661,27.5152
GT10/2093,C,337.99609,31.0054
GT10/2091,C,337.99841,31.0022
GT10/2085,C,338,31.0003
GT10/2072,C,340.99921,33.1001
GT10/2061,C,344.00351,35.2013
GT10/2059,C,344.0032,35.2013
GT10/2055,C,343.99771,35.201
GT10/2042,C,347.1687,36.7622
GT10/2031,C,350.33969,38.3281
GT10/2024,C,350.3396,38.3299
GT10/2022,C,350.34,38.326
GT10/2020,C,350.33981,38.324
GT10/2011,C,350.33499,38.3304
GT10/2008,C,350.33499,38.325
GT11/3280,C,335.5,17.4
GT11/3275,C,335.50031,17.3996
GT11/3264,C,333.23471,18.3898
GT11/3253,C,330.61691,19.433
GT11/3247,C,330.61691,19.4332
GT11/3235,C,327.3754,20.8836
GT11/3232,C,324.1322,22.3756
GT11/3226,C,324.1329,22.3331
GT11/3222,C,324.13309,22.3331
GT11/3212,C,321.95831,23.2422
GT11/3202,C,319.7829,24.15
GT11/3197,C,319.77719,24.1499
GT11/3188,C,317.4787,25.1416
GT11/3177,C,315.1738,26.1369
GT11/3172,C,315.1738,26.1368
GT11/3168,C,315.17441,26.1358
GT11/3159,C,312.76999,26.8573
GT11/3149,C,310.367,27.583
GT11/3143,C,310.3674,27.5829
GT11/3133,C,306.7756,28.6432
GT11/3122,C,303.18311,29.7
GT11/3116,C,303.18289,29.7
GT11/3112,C,303.18411,29.6999
GT11/3100,C,299.22189,30.8177
GT11/3089,C,295.83911,31.7538
GT11/3087,C,295.8302,31.7474
GT11/3082,C,295.83331,31.75
GT11/3078,C,295.83051,31.7508
GT11/3068,C,293.4819,35.4163
GT11/3064,C,293.4794,35.4176
GT11/3059,C,291.61789,37.6176
GT11/3058,C,291.5528,37.553
GT11/3054,C,291.61249,37.6138
GT11/3049,C,291.2973,38.0862
GT11/3047,C,291.1398,38.3457
GT11/3044,C,291.1265,38.3363
GT11/3034,C,290.8988,38.6743
GT11/3030,C,290.89429,38.6758
GT11/3022,C,290.45999,39.35
GT11/3018,C,290.4613,39.3502
GT11/3010,C,290.189,39.6865
GT11/3005,C,290.19922,39.7002
GT11/3281,C,335.5,17.4
GT11/3279,C,335.49991,17.4
GT11/3277,C,335.5,17.4
GT11/3266,C,333.23541,18.3891
GT11/3254,C,330.617,19.433
GT11/3252,C,330.617,19.433
GT11/3249,C,330.61679,19.4334
GT11/3236,C,327.37531,20.8839
GT11/3233,C,324.13199,22.3763
GT11/3231,C,324.13199,22.3753
GT11/3230,C,324.1322,22.3755
GT11/3227,C,324.1329,22.333
GT11/3225,C,324.133,22.333
GT11/3223,C,324.133,22.3331
GT11/3213,C,321.9556,23.2456
GT11/3203,C,319.78299,24.15
GT11/3201,C,319.7829,24.15
GT11/3198,C,319.7821,24.1497
GT11/3189,C,317.47821,25.1412
GT11/3180,C,315.1738,26.1369
GT11/3179,C,315.1738,26.1369
GT11/3176,C,315.1738,26.1369
GT11/3174,C,315.17349,26.1349
GT11/3171,C,315.1738,26.1368
GT11/3169,C,315.1738,26.1368
GT11/3160,C,312.7699,26.8572
GT11/3150,C,310.367,27.5831
GT11/3148,C,310.367,27.583
GT11/3144,C,310.367,27.5831
GT11/3134,C,306.77551,28.6438
GT11/3124,C,303.18311,29.7
GT11/3121,C,303.1832,29.7011
GT11/3119,C,303.18298,29.7001
GT11/3117,C,303.18289,29.7
GT11/3115,C,303.18298,29.7
GT11/3113,C,303.18298,29.7
GT11/3101,C,299.2171,30.8217
GT11/3090,C,295.83398,31.751
GT11/3088,C,295.83679,31.7524
GT11/3085,C,295.83209,31.7491
GT11/3083,C,295.815,31.7399
GT11/3081,C,295.8331,31.7496
GT11/3079,C,295.82501,31.7535
GT11/3069,C,293.4841,35.4174
GT11/3067,C,293.3605,35.4263
GT11/3065,C,293.4592,35.4162
GT11/3061,C,291.58261,37.5677
GT11/3060,C,291.6105,37.6073
GT11/3056,C,291.58701,37.5997
GT11/3052,C,291.28571,38.0807
GT11/3046,C,291.1304,38.3187
GT11/3045,C,291.1326,38.3198
GT11/3043,C,291.12451,38.3243
GT11/3040,C,290.88879,38.6711
GT11/3037,C,290.85699,38.6506
GT11/3031,C,290.86871,38.655
GT11/3024,C,290.45999,39.35
GT11/3023,C,290.45999,39.35
GT11/3020,C,290.4545,39.3492
GT11/3016,C,290.20309,39.7
GT11/3015,C,290.13708,39.6923
GT11/3013,C,290.19739,39.6981
GT11/3012,C,290.19269,39.6701
GT11/3009,C,290.20999,39.6968
GT11/3006,C,290.1814,39.7017