BODC Station,Longitude [degrees_east],Latitude [degrees_north],Bot. Depth [m]
1629547,307.31189,-49.5472,2322
1629582,311.26529,-48.8942,5900
1629596,312.80042,-46.92,5733
1629610,314.4639,-44.7068,5063
1629624,315.97421,-42.3713,5159
1629652,317.5834,-39.9632,5147
1629673,318.86911,-37.8398,5047
1629687,320.5632,-35.0088,4850
1629708,322.54071,-32.0894,4133
1629722,324.20401,-29.0579,3852
1629743,325.72089,-26.0891,4575
1629771,327.25562,-22.4715,4527
1629785,329.40079,-17.0168,4911
1629806,330.77271,-12.894,5407
1629820,332,-9.15415,5628
1629841,331.53989,-5.677,5549
1629869,331.0831,-2.65115,4908
1629883,327.12189,-0.18715,4354
1608400,349.01709,60.4053,756
1608442,325.75009,64.0001,2215
1608456,324.00189,62.3451,2708
1608470,322.09009,60.4273,2943
1608491,320.29309,58.6022,3125
1608526,314.16479,54.0634,3435
1608540,314.26849,51.8209,4052
1608554,317.5531,49.722,4403
1608582,320.60049,47.8,4570
1608603,320.34161,46.3119,4607
1608624,317.46851,44.8423,4724
1608631,311.92441,39.5067,5376
1608673,309.21811,37.5345,5441
1608687,306.70898,36.2051,5451
1608701,304.5755,34.3307,5533
1608715,301.9498,33.4334,4504
1608729,298.8989,32.5514,4672
1608827,295.50659,32.2288,2949
1608862,295.83331,31.6668,4560
1608876,293.47021,29.6157,5180
1608904,292.4985,28.0907,4920
1608918,292.1955,26.2389,5307
1608932,292.92731,24.7144,5573
1608946,294.4472,23.2747,5771
1608967,296.41669,22.3409,5807
1608981,298.1568,21.7764,5795
1608995,300.46851,20.455,5336
1609037,302.38892,18.571,5280
1609051,303.73138,16.831,5739
1609065,305.1973,14.8802,5481
1609079,306.57889,13.162,5025
1609100,307.95471,11.3723,4988
1609114,309.5314,9.5459,4787
1609163,311.1167,7.76648,4335
1609177,313.58289,5.97805,3837
1609191,316.24649,3.9754,3845
1609205,318.29999,2.54495,4381
1609219,320.3136,1.1472,4465
1609240,321.03329,0.71545,3992
1703502,325.32391,18.0216,
1703509,323.66641,18.4566,
1703516,321.8895,18.5634,
1703523,320.14389,18.6518,
1703530,318.2034,18.6946,
1703537,316.43069,18.7731,
1703544,314.69171,18.8594,
1703551,313.02429,19.0004,
1703558,311.25821,19.1431,
1703565,309.55991,19.2903,
1703572,307.78479,19.4395,
1703579,306.30798,19.591,
1703586,304.42169,19.7138,
1703593,303.24179,19.8305,
1703600,301.48889,19.9712,
1703607,300.00839,20.6622,
1703614,298.47711,21.5429,
1703621,296.93539,22.3397,
1703628,295.42801,23.2148,
1703635,294.31848,23.811,
1703642,292.89398,24.6129,
1703649,291.5759,25.4843,
1703656,290.0907,26.4755,
1703663,288.59381,27.2468,
1703670,287.13409,28.104,
1703677,285.67389,28.9758,
1703684,284.19421,29.8297,
1703691,282.55621,30.6821,
1703698,281.34909,31.8614,
1703705,281.10519,32.2584,
1703460,334.65021,16.8546,
1703467,334.16251,16.9283,
1703474,332.4541,17.1816,
1703481,330.70871,17.4346,
1703488,328.95929,17.6895,
1699876,340.99921,33.1001,3837
1702340,341.685,17.3602,
1703712,290.13739,39.8017,
1703719,298.61719,30.9843,
1703726,301.89661,30.0579,
1703733,305.06659,29.1411,
1703740,308.70691,28.0656,
1703747,312.25031,27.0074,
1703754,314.59399,26.3129,
1703761,316.8829,25.3737,
1703768,318.36029,24.7609,
1703775,321.17569,23.5753,
1703782,323.19672,22.7276,
1703789,329.65149,19.8522,
1703796,332.25311,18.778,
1703803,334.81921,17.6981,
1646256,291.1304,38.3269,3790
1703327,347.16861,36.762,4592
1702060,337.9967,27.5151,
1701675,337.99908,20.7413,4340
1701689,337.21631,17.352,3359
1646123,290.1861,39.6941,2079
1701731,295.83051,31.75,4566
1701738,299.22021,30.8191,5341
1646550,303.1832,29.7001,5644
1701752,306.7756,28.6434,5288
1646613,310.3671,27.583,4244
1701444,312.76999,26.8573,
1646690,315.17358,26.1362,3669
1701458,317.47852,25.1415,
1702207,319.78119,24.1499,
1701472,321.9574,23.2434,
1701710,290.45959,39.35,2484
1646816,324.13251,22.3509,5432
1701486,327.3754,20.8837,
1702221,330.61719,19.4329,
1701507,333.23489,18.3896,
1702228,335.50009,17.3999,
1646221,290.88422,38.6683,3320
1701717,291.29321,38.0842,4071
1646326,291.5954,37.5954,4584
1701724,293.45731,35.4186,4916
1701759,310.367,27.583,4277
1701766,312.7699,26.858,4244
1701773,315.1738,26.137,3869
1701780,317.478,25.142,3538
1701787,319.7821,24.15,4423
1701794,321.9577,23.243,5811
1701801,327.37531,20.884,4992
1701808,330.61679,19.433,5014
1701822,334.3674,17.895,3570
1701640,350.33878,38.3264,2817
1700142,339.17889,17.3538,3353
1700191,337.21661,17.3514,3359
1700240,335.5022,17.4021,3548
1699869,344.00049,35.2014,2791
1699946,338.23389,31.003,5010
1700009,338.00201,24.0022,4597
1700093,341.7471,17.3533,3050